iocon_17xx_40xx.h:151:20:Chip_IOCON_Init	16	static
iocon_17xx_40xx.h:237:20:Chip_IOCON_PinMuxSet	24	static
iocon_17xx_40xx.h:251:20:Chip_IOCON_PinMux	24	static
gpio_17xx_40xx.h:64:20:Chip_GPIO_Init	16	static
gpio_17xx_40xx.h:88:20:Chip_GPIO_SetPinState	16	static
gpio_17xx_40xx.h:106:20:Chip_GPIO_WritePortBit	24	static
gpio_17xx_40xx.h:119:20:Chip_GPIO_GetPinState	16	static
gpio_17xx_40xx.h:132:20:Chip_GPIO_ReadPortBit	24	static
gpio_17xx_40xx.h:144:20:Chip_GPIO_SetPinDIROutput	16	static
gpio_17xx_40xx.h:156:20:Chip_GPIO_SetPinDIRInput	16	static
gpio_17xx_40xx.h:169:20:Chip_GPIO_SetPinDIR	16	static
gpio_17xx_40xx.h:190:20:Chip_GPIO_WriteDirBit	16	static
gpio_17xx_40xx.h:464:20:Chip_GPIO_SetPinToggle	24	static
ssp_17xx_40xx.h:239:20:Chip_SSP_Enable	16	static
ssp_17xx_40xx.h:249:20:Chip_SSP_Disable	16	static
ssp_17xx_40xx.h:413:20:Chip_SSP_SetFormat	24	static
uart_17xx_40xx.h:309:20:Chip_UART_SendByte	16	static
uart_17xx_40xx.h:322:23:Chip_UART_ReadByte	16	static
uart_17xx_40xx.h:405:20:Chip_UART_ConfigData	16	static
uart_17xx_40xx.h:492:24:Chip_UART_ReadLineStatus	16	static
libconfig-arm.h:247:5:__sys_write	32	static
libconfig-arm.h:241:5:__sys_readc	16	static
board.c:155:13:delay	16	static
board.c:161:13:delayMs	16	static
board.c:168:13:writeLCDReg	24	static
board.c:192:13:initSSD1289	8	static
board.c:249:13:configTSC2046Pins	8	static
board.c:261:13:readWriteTSC2046	24	static
board.c:282:15:evalTSC2046Coord	32	static
board.c:310:16:calibrateTSC2046	24	static
board.c:337:6:Board_UART_Init	16	static
board.c:356:6:Board_Debug_Init	8	static
board.c:371:6:Board_UARTPutChar	16	static
board.c:380:5:Board_UARTGetChar	8	static
board.c:391:6:Board_UARTPutSTR	16	static
board.c:405:13:Board_LED_Init	16	static
board.c:417:6:Board_LED_Set	16	static
board.c:426:6:Board_LED_Test	24	static
board.c:439:6:Board_LED_Toggle	16	static
board.c:447:6:Board_ENET_GetMacADDR	24	static
board.c:455:6:Board_SSP_Init	16	static
board.c:503:6:Board_Init	8	static
board.c:517:6:Board_LCD_Init	16	static
board.c:546:6:Board_InitLCDController	8	static
board.c:579:6:Board_InitTouchController	16	static
board.c:597:6:Board_GetTouchPos	32	static
board.c:657:6:Board_SetLCDBacklight	24	static
board.c:664:6:Board_Audio_Init	24	static
board.c:681:6:Board_I2C_Init	16	static
board.c:704:6:Board_Buttons_Init	8	static
board.c:709:10:Buttons_GetStatus	16	static
board.c:719:6:Board_CAN_Init	16	static
board.c:756:6:Board_Joystick_Init	16	static
board.c:768:9:Joystick_GetStatus	16	static
board.c:782:6:Board_RTC_EV_Init	8	static
board.c:790:6:Board_SDC_Init	8	static
board.c:801:6:Board_NANDFLash_Init	8	static
board.c:814:6:Board_USBD_Init	24	static
