tcp_conn_bk.c:48:6:load_buff_send	32	static
tcp_conn_bk.c:71:6:tcpip_init_done_signal	16	static
tcp_conn_bk.c:77:6:tcp_close_con	16	static
tcp_conn_bk.c:87:6:tcp_end	16	static
tcp_conn_bk.c:95:10:tcp_send_packet	32	static
tcp_conn_bk.c:152:7:tcpSendPoll	24	static
tcp_conn_bk.c:174:7:tcpRecvCallback	48	static
tcp_conn_bk.c:221:7:tcpSendCallback	24	static
tcp_conn_bk.c:231:6:tcpErrorHandler	16	static
tcp_conn_bk.c:249:7:connectCallback	24	static
tcp_conn_bk.c:256:7:tcp_setup	32	static
